[
    
    {
        "label": "Home",
        "items": [{
            "label": "Dashboard", "icon": "pi pi-fw pi-home", "to": "/dashboard"
        }]
    },
    {
    "label" : "Settings",
    "items" : [
        {
            "label" : "BIC Administrator",
            "icon" :"pi pi-fw pi-microsoft",
            "to" :"/mgm/root/appgroup"
        },
        {
          "label" : "Proxy Manager",
          "icon" :"pi pi-fw pi-bookmark",
          "to" :"/mgm/root/users"
      }
    ]
    },
    {
    "label" : "Transaction Monitor",
    "icon":"pi pi-fw pi-chart-line",
    "to" :"/mgm/root/appgroup"
    },
    {
    "label" : "Reports",
    "items" : [
        {
            "label" : "Transactions",
            "icon" :"pi pi-fw pi-download",
            "to" :"/mgm/root/eventlog"

        }
    ]
    }
]